Class 19NOV19
…
##           1           2           3 
## -0.40408631 -0.40408631  0.01811644

##        1        2        3 
## 0.400331 0.400331 0.504529

## # A tibble: 48,960 x 5
##    dvote female response gender prediction
##    <dbl>  <dbl> <chr>    <chr>       <dbl>
##  1     0      1 Rep      Female      0.505
##  2     0      1 Rep      Female      0.505
##  3     1      1 Dem      Female      0.505
##  4     1      1 Dem      Female      0.505
##  5     1      0 Dem      Male        0.400
##  6     0      0 Rep      Male        0.400
##  7     0      0 Rep      Male        0.400
##  8     0      0 Rep      Male        0.400
##  9     1      1 Dem      Female      0.505
## 10     0      0 Rep      Male        0.400
## #  with 48,950 more rows
